{
  "Serilog": {
    "MinimumLevel": {
      "Default": "Information",
      "Override": {
        "System.Net.Http.HttpClient": "Warning",
        "Microsoft": "Warning"
      }
    },
    "Using": [ "Serilog.Sinks.ColoredConsole", "Serilog.Sinks.PostgreSQL", "Serilog.Enrichers.Environment" ],
    "Enrich": [ "WithMachineName" ],
    "WriteTo": [
      {
        "Name": "PostgreSQL",
        "Args": {
          "tableName": "web_medo",
          "columnOptions": {
            "level": "LevelColumnWriter;renderAsText:True,dbType:Varchar",
            "message": "RenderedMessageColumnWriter;dbType:Text",
            "exception": "ExceptionColumnWriter;dbType:Text",
            "timestamp": "TimestampColumnWriter;dbType:Timestamp",
            "machine_name": "SinglePropertyColumnWriter;propertyName:MachineName,writeMethod:ToString,dbType:Text,format",
            "source_context": "SinglePropertyColumnWriter;propertyName:SourceContext,writeMethod:ToString,dbType:Text,format",
            "ip_address": "SinglePropertyColumnWriter;propertyName:IPAddress,writeMethod:ToString,dbType:Text,format",
            "version": "SinglePropertyColumnWriter;propertyName:AppVersion,writeMethod:ToString,dbType:Text,format"
          },
          "connectionString": "Server=sed.volganet.ru;Database=medologs;Username=logging;Password=625f8080ed03ba74c776edde842f6f0f",
          "needAutoCreateTable": true
        }
      },
      {
        "Name": "ColoredConsole",
        "Args": {
          "outputTemplate": "{Timestamp:yyyy.MM.dd HH:mm:ss} [{Level:u3}] {Message}{NewLine}{Exception}"
        }
      }
    ]
  }
}
